%!PS-Adobe-3.0 EPSF-3.0
%%Creator: cairo 1.13.1 (http://cairographics.org)
%%CreationDate: Mon May  9 19:01:10 2016
%%Pages: 1
%%DocumentData: Clean7Bit
%%LanguageLevel: 2
%%BoundingBox: 3 17 76 78
%%EndComments
%%BeginProlog
save
50 dict begin
/q { gsave } bind def
/Q { grestore } bind def
/cm { 6 array astore concat } bind def
/w { setlinewidth } bind def
/J { setlinecap } bind def
/j { setlinejoin } bind def
/M { setmiterlimit } bind def
/d { setdash } bind def
/m { moveto } bind def
/l { lineto } bind def
/c { curveto } bind def
/h { closepath } bind def
/re { exch dup neg 3 1 roll 5 3 roll moveto 0 rlineto
      0 exch rlineto 0 rlineto closepath } bind def
/S { stroke } bind def
/f { fill } bind def
/f* { eofill } bind def
/n { newpath } bind def
/W { clip } bind def
/W* { eoclip } bind def
/BT { } bind def
/ET { } bind def
/pdfmark where { pop globaldict /?pdfmark /exec load put }
    { globaldict begin /?pdfmark /pop load def /pdfmark
    /cleartomark load def end } ifelse
/BDC { mark 3 1 roll /BDC pdfmark } bind def
/EMC { mark /EMC pdfmark } bind def
/cairo_store_point { /cairo_point_y exch def /cairo_point_x exch def } def
/Tj { show currentpoint cairo_store_point } bind def
/TJ {
  {
    dup
    type /stringtype eq
    { show } { -0.001 mul 0 cairo_font_matrix dtransform rmoveto } ifelse
  } forall
  currentpoint cairo_store_point
} bind def
/cairo_selectfont { cairo_font_matrix aload pop pop pop 0 0 6 array astore
    cairo_font exch selectfont cairo_point_x cairo_point_y moveto } bind def
/Tf { pop /cairo_font exch def /cairo_font_matrix where
      { pop cairo_selectfont } if } bind def
/Td { matrix translate cairo_font_matrix matrix concatmatrix dup
      /cairo_font_matrix exch def dup 4 get exch 5 get cairo_store_point
      /cairo_font where { pop cairo_selectfont } if } bind def
/Tm { 2 copy 8 2 roll 6 array astore /cairo_font_matrix exch def
      cairo_store_point /cairo_font where { pop cairo_selectfont } if } bind def
/g { setgray } bind def
/rg { setrgbcolor } bind def
/d1 { setcachedevice } bind def
%%EndProlog
%%BeginSetup
%%EndSetup
%%Page: 1 1
%%BeginPageSetup
%%PageBoundingBox: 3 17 76 78
%%EndPageSetup
q 3 17 73 61 rectclip q
1 g
69.836 65.926 m 66.953 65.809 64.84 62.344 66.285 59.77 c 67.348 57.324
 70.824 56.746 72.742 58.531 c 75.211 60.555 74.133 65.242 70.91 65.82 c
 70.559 65.91 70.195 65.945 69.836 65.926 c h
69.836 65.926 m f
39.879 60.242 m 34.305 60.031 30.223 53.891 33.02 49.328 c 35.07 44.996
 41.781 43.973 45.492 47.133 c 50.262 50.719 48.176 59.027 41.949 60.051
 c 41.273 60.211 40.574 60.273 39.879 60.242 c h
39.879 60.242 m f
10.582 50.035 m 7.801 50.09 5.793 47.059 6.602 44.477 c 7.262 41.453 11.484
 40.156 13.66 42.414 c 16.008 44.418 15.355 48.766 12.363 49.762 c 11.797
 49.969 11.188 50.059 10.582 50.035 c h
10.582 50.035 m f
0 g
69.844 65.637 m 67.688 65.637 65.941 63.867 65.941 61.688 c 65.941 59.508
 67.688 57.738 69.844 57.738 c 72 57.738 73.746 59.508 73.746 61.688 c 73.746
 63.867 72 65.637 69.844 65.637 c h
10.582 49.828 m 8.422 49.828 6.676 48.059 6.676 45.875 c 6.676 43.695 8.422
 41.926 10.582 41.926 c 12.738 41.926 14.488 43.695 14.488 45.875 c 14.484
 48.059 12.738 49.828 10.582 49.828 c h
9.734 29.406 m 12.77 29.406 15.281 27.156 15.746 24.223 c 15.797 24.227
 15.848 24.23 15.902 24.23 c 18.73 24.188 20.402 39.797 22.082 43.988 c 
23.227 46.844 24.375 49.707 25.996 51.602 c 16.738 44.773 l 16.695 44.742
 16.625 44.777 16.57 44.785 c 16.062 41.906 13.574 39.719 10.578 39.719 
c 7.219 39.719 4.492 42.477 4.492 45.879 c 4.492 49.277 7.219 52.035 10.578
 52.035 c 13.574 52.035 16.062 49.848 16.57 46.969 c 16.625 46.977 16.691
 46.949 16.738 46.98 c 26.379 53.809 l 24.977 55.555 23.898 58.137 22.793
 60.781 c 20.965 65.16 19.059 69.734 15.887 69.734 c 15.855 69.734 15.824
 69.734 15.793 69.738 c 15.281 66.82 12.762 64.605 9.73 64.605 c 6.332 64.605
 3.578 67.395 3.578 70.836 c 3.578 74.277 6.332 77.066 9.734 77.066 c 12.762
 77.066 15.281 74.852 15.793 71.934 c 15.824 71.938 15.859 71.941 15.891
 71.941 c 20.496 71.941 22.691 66.676 24.797 61.633 c 25.941 58.895 27.051
 56.23 28.383 54.828 c 28.816 57.223 29.965 59.363 31.598 61.02 c 33.703
 63.148 36.609 64.465 39.816 64.465 c 43.027 64.465 45.934 63.148 48.035
 61.02 c 49.852 59.18 51.07 56.734 51.367 54.008 c 54.004 54.602 55.188 
56.395 56.328 58.117 c 57.93 60.539 59.465 62.852 63.699 62.789 c 63.754
 62.789 63.805 62.781 63.855 62.773 c 64.363 65.656 66.852 67.844 69.844
 67.844 c 73.203 67.844 75.926 65.09 75.926 61.688 c 75.926 58.289 73.203
 55.531 69.844 55.531 c 66.852 55.531 64.363 57.723 63.855 60.602 c 63.797
 60.594 63.734 60.59 63.672 60.59 c 60.613 60.633 59.402 58.805 58.133 56.891
 c 57.102 55.332 56.039 53.73 54.211 52.703 c 56.039 51.676 57.102 50.074
 58.133 48.516 c 59.402 46.598 60.402 37.207 63.461 37.25 c 63.496 37.25
 63.535 37.25 63.57 37.246 c 64.082 40.164 66.602 42.383 69.633 42.383 c
 73.031 42.383 75.789 39.594 75.789 36.152 c 75.789 32.715 73.031 29.922
 69.633 29.922 c 66.602 29.922 64.082 32.141 63.57 35.059 c 63.543 35.055
 63.516 35.055 63.488 35.055 c 59.25 34.992 57.93 44.867 56.328 47.289 c
 55.188 49.016 54 50.805 51.367 51.398 c 51.07 48.672 49.852 46.227 48.035
 44.387 c 45.93 42.262 43.027 40.945 39.816 40.945 c 36.605 40.945 33.703
 42.262 31.598 44.387 c 29.91 46.098 28.742 48.324 28.344 50.816 c 26.602
 49.402 25.348 46.277 24.098 43.16 c 22.141 38.273 20.191 21.969 15.875 
22.031 c 15.816 22.035 15.758 22.039 15.703 22.047 c 15.152 19.223 12.688
 17.09 9.73 17.09 c 6.371 17.09 3.645 19.848 3.645 23.246 c 3.645 26.648
 6.371 29.406 9.734 29.406 c h
9.734 27.199 m 7.574 27.199 5.828 25.43 5.828 23.246 c 5.828 21.062 7.574
 19.293 9.734 19.293 c 11.891 19.293 13.641 21.062 13.641 23.246 c 13.637
 25.43 11.891 27.199 9.734 27.199 c h
39.816 45.355 m 41.82 45.355 43.637 46.18 44.949 47.508 c 46.266 48.84 
47.078 50.676 47.078 52.703 c 47.078 54.73 46.266 56.566 44.949 57.898 c
 43.637 59.227 41.82 60.047 39.816 60.047 c 37.812 60.047 35.996 59.227 
34.684 57.898 c 33.371 56.566 32.559 54.73 32.559 52.703 c 32.559 50.672
 33.371 48.84 34.684 47.508 c 35.996 46.18 37.812 45.355 39.816 45.355 c
 h
39.816 45.355 m f*
Q Q
showpage
%%Trailer
end restore
%%EOF
