%!PS-Adobe-3.0 EPSF-3.0
%%Creator: cairo 1.13.1 (http://cairographics.org)
%%CreationDate: Mon May  9 22:17:57 2016
%%Pages: 1
%%DocumentData: Clean7Bit
%%LanguageLevel: 2
%%BoundingBox: 9 11 72 78
%%EndComments
%%BeginProlog
save
50 dict begin
/q { gsave } bind def
/Q { grestore } bind def
/cm { 6 array astore concat } bind def
/w { setlinewidth } bind def
/J { setlinecap } bind def
/j { setlinejoin } bind def
/M { setmiterlimit } bind def
/d { setdash } bind def
/m { moveto } bind def
/l { lineto } bind def
/c { curveto } bind def
/h { closepath } bind def
/re { exch dup neg 3 1 roll 5 3 roll moveto 0 rlineto
      0 exch rlineto 0 rlineto closepath } bind def
/S { stroke } bind def
/f { fill } bind def
/f* { eofill } bind def
/n { newpath } bind def
/W { clip } bind def
/W* { eoclip } bind def
/BT { } bind def
/ET { } bind def
/pdfmark where { pop globaldict /?pdfmark /exec load put }
    { globaldict begin /?pdfmark /pop load def /pdfmark
    /cleartomark load def end } ifelse
/BDC { mark 3 1 roll /BDC pdfmark } bind def
/EMC { mark /EMC pdfmark } bind def
/cairo_store_point { /cairo_point_y exch def /cairo_point_x exch def } def
/Tj { show currentpoint cairo_store_point } bind def
/TJ {
  {
    dup
    type /stringtype eq
    { show } { -0.001 mul 0 cairo_font_matrix dtransform rmoveto } ifelse
  } forall
  currentpoint cairo_store_point
} bind def
/cairo_selectfont { cairo_font_matrix aload pop pop pop 0 0 6 array astore
    cairo_font exch selectfont cairo_point_x cairo_point_y moveto } bind def
/Tf { pop /cairo_font exch def /cairo_font_matrix where
      { pop cairo_selectfont } if } bind def
/Td { matrix translate cairo_font_matrix matrix concatmatrix dup
      /cairo_font_matrix exch def dup 4 get exch 5 get cairo_store_point
      /cairo_font where { pop cairo_selectfont } if } bind def
/Tm { 2 copy 8 2 roll 6 array astore /cairo_font_matrix exch def
      cairo_store_point /cairo_font where { pop cairo_selectfont } if } bind def
/g { setgray } bind def
/rg { setrgbcolor } bind def
/d1 { setcachedevice } bind def
%%EndProlog
%%BeginSetup
%%EndSetup
%%Page: 1 1
%%BeginPageSetup
%%PageBoundingBox: 9 11 72 78
%%EndPageSetup
q 9 11 63 67 rectclip q
1 g
25.312 21.957 m 25.312 18.832 22.738 16.301 19.559 16.301 c 16.383 16.301
 13.805 18.832 13.805 21.957 c 13.805 25.082 16.383 27.613 19.559 27.613
 c 22.738 27.613 25.312 25.082 25.312 21.957 c h
25.312 21.957 m f
40.652 67.883 m 40.652 64.176 37.777 61.172 34.23 61.172 c 30.68 61.172
 27.805 64.176 27.805 67.883 c 27.805 71.59 30.68 74.594 34.23 74.594 c 
37.777 74.594 40.652 71.59 40.652 67.883 c h
40.652 67.883 m f
0.00392157 g
67.094 67.594 m 57.836 70.527 l 55.637 63.582 l 48.691 65.781 l 45.762 
56.523 l 52.703 54.324 l 50.504 47.383 l 59.762 44.449 l 61.961 51.395 l
 68.906 49.195 l 71.84 58.453 l 64.895 60.652 l h
67.094 67.594 m f
48.305 40.438 m 46.539 34.855 45.719 34.523 43.918 33.82 c 42.574 33.293
 40.383 33.812 37.84 34.426 c 36.434 34.758 34.82 35.145 33.145 35.387 c
 31.715 35.602 30.27 35.551 28.863 35.344 c 36.164 58.387 l 39.434 59.117
 42.246 61.504 43.332 64.934 c 44.949 70.039 42.109 75.508 37.004 77.125
 c 31.898 78.742 26.43 75.906 24.812 70.797 c 23.727 67.371 24.652 63.801
 26.906 61.32 c 17.32 31.055 l 14.047 30.324 11.238 27.938 10.152 24.508
 c 8.535 19.402 11.371 13.934 16.48 12.316 c 21.586 10.699 27.051 13.535
 28.668 18.645 c 29.387 20.914 29.223 23.258 28.387 25.289 c 29.578 25.676
 30.797 25.91 31.754 25.77 c 32.984 25.586 34.242 25.281 35.574 24.973 c
 39.184 24.098 43.281 23.121 47.484 24.781 c 53.105 26.996 55.297 30.598
 57.332 36.77 c 57.562 37.504 l h
35.539 72.496 m 38.086 71.688 39.508 68.945 38.703 66.402 c 37.895 63.855
 35.152 62.43 32.605 63.238 c 30.059 64.043 28.637 66.785 29.441 69.332 
c 30.25 71.879 32.992 73.301 35.539 72.496 c h
17.945 16.945 m 15.398 17.754 13.977 20.496 14.781 23.043 c 15.59 25.586
 18.332 27.012 20.879 26.203 c 23.422 25.398 24.848 22.656 24.039 20.109
 c 23.234 17.562 20.492 16.141 17.945 16.945 c h
17.945 16.945 m f
Q Q
showpage
%%Trailer
end restore
%%EOF
